<?xml version="1.0" encoding="utf-8"?>
<!-- Generator: Adobe Illustrator 24.2.0, SVG Export Plug-In . SVG Version: 6.00 Build 0)  -->
<svg version="1.1" id="Layer_1" xmlns="http://www.w3.org/2000/svg" xmlns:xlink="http://www.w3.org/1999/xlink" x="0px" y="0px"
	 viewBox="0 0 198.7 196.1" style="enable-background:new 0 0 198.7 196.1;" xml:space="preserve">
<style type="text/css">
	.st0{fill:#2E3132;}
</style>
<path id="XMLID_9_" class="st0" d="M16,0v32H0v55.1h16v109h182.7V0H16z M182.7,180.2H32v-93h80.7V32H32V16h150.7V180.2z M48,140.2
	h118.7v16H48V140.2z M48,109.2h118.7v16H48V109.2z M27.5,55.6L33,45.3h7.1l-8.7,14.8l8.9,15h-7.2l-5.7-10.5l-5.7,10.5h-7.2l8.9-15
	l-8.7-14.8h7.1L27.5,55.6z M53.6,45.3L61.2,67l7.6-21.7H77v29.8h-6.2V67l0.6-14.1l-8.1,22.3h-4.2l-8-22.2l0.6,14v8.2h-6.2V45.3H53.6
	z M90.6,70.2h13.1v4.9H84.4V45.3h6.2L90.6,70.2z"/>
</svg>
