<?xml version="1.0" encoding="utf-8"?>
<!-- Generator: Adobe Illustrator 24.2.0, SVG Export Plug-In . SVG Version: 6.00 Build 0)  -->
<svg version="1.1" id="Layer_1" xmlns="http://www.w3.org/2000/svg" xmlns:xlink="http://www.w3.org/1999/xlink" x="0px" y="0px"
	 viewBox="0 0 198.7 196.1" style="enable-background:new 0 0 198.7 196.1;" xml:space="preserve">
<style type="text/css">
	.st0{fill:#2E3132;}
</style>
<path id="XMLID_10_" class="st0" d="M16,0v32H0v55.1h16v109h182.7V0H16z M182.7,180.2H32v-93h117.3V32H32V16h150.7V180.2z M48,140.2
	h118.7v16H48V140.2z M48,109.2h118.7v16H48V109.2z M40.5,75.2h-6.2V62.4h-12v12.8h-6.1V45.3h6.1v12.1h12V45.3h6.2V75.2z M69.8,50.3
	h-9.1v24.9h-6.2V50.3h-9v-5h24.3V50.3z M83.5,45.3L91.2,67l7.6-21.7h8.1v29.9h-6.2V67l0.6-14.1l-8.1,22.3H89L81,53l0.6,14v8.2h-6.2
	V45.3H83.5z M120.5,70.2h13.1v4.9h-19.2V45.3h6.2V70.2z"/>
</svg>
