<?xml version="1.0" encoding="utf-8"?>
<!-- Generator: Adobe Illustrator 24.2.0, SVG Export Plug-In . SVG Version: 6.00 Build 0)  -->
<svg version="1.1" id="Layer_1" xmlns="http://www.w3.org/2000/svg" xmlns:xlink="http://www.w3.org/1999/xlink" x="0px" y="0px"
	 viewBox="0 0 198.7 196.1" style="enable-background:new 0 0 198.7 196.1;" xml:space="preserve">
<style type="text/css">
	.st0{fill:#2E3132;}
</style>
<path id="XMLID_13_" class="st0" d="M16,0v32H0v55.1h16v109h182.7V0H16z M182.7,180.2H32v-93h80.7V32H32V16h150.7V180.2z M48,140.2
	h118.7v16H48V140.2z M48,109.2h118.7v16H48V109.2z M32.1,75.2V45.3h9.2c2.4,0,4.9,0.6,7,1.8c2.1,1.2,3.7,2.9,4.8,5
	c1.2,2.3,1.8,4.9,1.8,7.4V61c0,2.6-0.5,5.1-1.7,7.4c-1.1,2.1-2.8,3.8-4.8,5c-2.1,1.2-4.5,1.8-7,1.8L32.1,75.2z M38.2,50.3v19.9h3
	c2.1,0.1,4.2-0.7,5.5-2.4c1.3-1.6,1.9-3.8,2-6.7v-1.6c0-3-0.6-5.3-1.9-6.9c-1.4-1.6-3.4-2.5-5.5-2.3L38.2,50.3z M61.5,75.2V45.3
	h10.5c3.6,0,6.4,0.7,8.2,2.1c1.9,1.4,3,3.7,2.8,6.1c0,1.4-0.4,2.7-1.1,3.9c-0.8,1.1-1.9,2-3.1,2.5c1.4,0.3,2.7,1.1,3.6,2.3
	c0.9,1.2,1.4,2.7,1.3,4.3c0.2,2.5-0.9,4.9-2.8,6.5c-1.8,1.5-4.4,2.2-7.8,2.2L61.5,75.2z M67.6,57.8h4.6c3.1,0,4.7-1.3,4.7-3.7
	c0.1-1.1-0.3-2.2-1.2-2.9c-1.1-0.7-2.4-1-3.7-0.9h-4.3V57.8z M67.6,62.2v8.1h5.3c1.2,0.1,2.4-0.3,3.4-1c0.8-0.7,1.3-1.8,1.2-2.9
	c0-2.7-1.4-4.1-4.2-4.2L67.6,62.2z"/>
</svg>
